[gd_scene load_steps=4 format=3 uid="uid://drrng7hfp0afi"]

[ext_resource type="Script" path="res://scenes/ui/ui_level_select_tile.gd" id="1_7wg21"]
[ext_resource type="Script" path="res://scenes/ui/components/hover_click_anim_component.gd" id="2_yeqpp"]

[sub_resource type="LabelSettings" id="LabelSettings_8phai"]
font_size = 28
outline_size = 3
outline_color = Color(0, 0, 0, 1)
shadow_color = Color(0, 0, 0, 1)

[node name="LevelSelectTile" type="CenterContainer"]
anchors_preset = 15
anchor_right = 1.0
anchor_bottom = 1.0
grow_horizontal = 2
grow_vertical = 2
size_flags_horizontal = 3
size_flags_vertical = 3
script = ExtResource("1_7wg21")

[node name="MinSize" type="Control" parent="."]
custom_minimum_size = Vector2(225.5, 135.813)
layout_mode = 2
mouse_filter = 2

[node name="LevelPreviewPanel" type="Panel" parent="."]
custom_minimum_size = Vector2(205, 115.313)
layout_mode = 2
theme_type_variation = &"MapPreviewPanel"

[node name="LevelPreviewButton" type="TextureButton" parent="LevelPreviewPanel"]
self_modulate = Color(0.603922, 0.603922, 0.603922, 1)
show_behind_parent = true
custom_minimum_size = Vector2(200, 112.5)
layout_mode = 1
anchors_preset = 8
anchor_left = 0.5
anchor_top = 0.5
anchor_right = 0.5
anchor_bottom = 0.5
offset_left = -100.0
offset_top = -56.25
offset_right = 100.0
offset_bottom = 56.25
grow_horizontal = 2
grow_vertical = 2
ignore_texture_size = true
stretch_mode = 6

[node name="HoverClickAnimComponent" type="Node" parent="LevelPreviewPanel" node_paths=PackedStringArray("node_to_animate", "scale_node", "hover_signals_node", "click_signals_button")]
script = ExtResource("2_yeqpp")
node_to_animate = NodePath("../LevelPreviewButton")
scale_node = NodePath("..")
hover_signals_node = NodePath("../LevelPreviewButton")
click_signals_button = NodePath("../LevelPreviewButton")

[node name="Label" type="Label" parent="."]
custom_minimum_size = Vector2(205, 115)
layout_mode = 2
text = "Level Name"
label_settings = SubResource("LabelSettings_8phai")
horizontal_alignment = 1
vertical_alignment = 1
autowrap_mode = 3
text_overrun_behavior = 3

[connection signal="pressed" from="LevelPreviewPanel/LevelPreviewButton" to="." method="on_level_select_pressed"]
