[gd_resource type="StandardMaterial3D" load_steps=2 format=3 uid="uid://dpfwakamnbik1"]

[ext_resource type="Texture2D" uid="uid://nc7qd0iccvl5" path="res://assets/textures/checker_01_02.png" id="1_glqw3"]

[resource]
transparency = 1
cull_mode = 2
albedo_color = Color(1, 1, 1, 0.61)
metallic = 1.0
metallic_specular = 1.0
roughness = 0.64
roughness_texture = ExtResource("1_glqw3")
roughness_texture_channel = 4
backlight_enabled = true
backlight = Color(1, 1, 1, 1)
refraction_enabled = true
refraction_scale = 0.01
uv1_scale = Vector3(0.2, 0.2, 0.2)
uv1_triplanar = true
uv1_triplanar_sharpness = 150.0
texture_filter = 5
